…
    ## [1] 465

There are 465 distinct stations.

``` r
nyc_transit_data %>%
  filter(ada == "TRUE")
```

    ## # A tibble: 468 × 20
    ##    line     station_name station_latitude station_longitude route1 route2 route3
    ##    <chr>    <chr>                   <dbl>             <dbl> <chr>  <chr>  <chr> 
    ##  1 4 Avenue Atlantic Av…             40.7             -74.0 B      Q      D     
    ##  2 4 Avenue DeKalb Av                40.7             -74.0 B      Q      R     
    ##  3 4 Avenue DeKalb Av                40.7             -74.0 B      Q      R     
    ##  4 4 Avenue DeKalb Av                40.7             -74.0 B      Q      R     
    ##  5 4 Avenue DeKalb Av                40.7             -74.0 B      Q      R     
    ##  6 4 Avenue DeKalb Av                40.7             -74.0 B      Q      R     
    ##  7 4 Avenue DeKalb Av                40.7             -74.0 B      Q      R     
    ##  8 4 Avenue Pacific St               40.7             -74.0 B      Q      D     
    ##  9 4 Avenue Pacific St               40.7             -74.0 B      Q      D     
    ## 10 42nd St… Grand Centr…             40.8             -74.0 GS     4      5     
    ## # ℹ 458 more rows
    ## # ℹ 13 more variables: route4 <chr>, route5 <chr>, route6 <chr>, route7 <chr>,
    ## #   route8 <dbl>, route9 <dbl>, route10 <dbl>, route11 <dbl>, entry <chr>,
    ## #   vending <chr>, entrance_type <chr>, ada <lgl>, entry_logical <lgl>
…
